First R Project
…
ames_train%>% group_by(House.Age)%>%
  summarise(count = n()) %>% arrange(desc(count))

## # A tibble: 102 × 2
##    House.Age count
##        <dbl> <int>
##  1        15    49
##  2        14    48
##  3        13    38
##  4        16    37
##  5        43    27
##  6        17    25
##  7        58    20
##  8       100    20
##  9        20    18
## 10        26    18
## # … with 92 more rows
## # ℹ Use `print(n = ...)` to see more rows
…
ames_train%>% group_by(Year.Remod)%>%
  summarise(count = n()) %>% arrange(desc(count))

## # A tibble: 61 × 2
##    Year.Remod count
##         <dbl> <int>
##  1         70   115
##  2         14    67
##  3         13    57
##  4         15    50
##  5         20    38
##  6         16    33
##  7         17    30
##  8         12    29
##  9         18    28
## 10         22    28
## # … with 51 more rows
## # ℹ Use `print(n = ...)` to see more rows
…
