Meat Consumption
…
unique(meat$measure)

## [1] "KG_CAP"     "THND_TONNE"

unique(meat$indicator)

## [1] "MEATCONSUMP"

unique(meat$frequency)

## [1] "A"

meat %>% group_by(location, subject, measure) %>% count()

## # A tibble: 312 × 4
## # Groups:   location, subject, measure [312]
##    location subject measure        n
##    <chr>    <chr>   <chr>      <int>
##  1 ARG      BEEF    KG_CAP        39
##  2 ARG      BEEF    THND_TONNE    39
##  3 ARG      PIG     KG_CAP        39
##  4 ARG      PIG     THND_TONNE    39
##  5 ARG      POULTRY KG_CAP        39
##  6 ARG      POULTRY THND_TONNE    39
##  7 ARG      SHEEP   KG_CAP        39
##  8 ARG      SHEEP   THND_TONNE    39
##  9 AUS      BEEF    KG_CAP        39
## 10 AUS      BEEF    THND_TONNE    39
## # … with 302 more rows
## # ℹ Use `print(n = ...)` to see more rows
…
Meat Consumption by Geographic Region and Income Status

Now let’s look at average meat consumption globally, and between
different geographic regions (continents) and countries of similar
socioecnomic trajecotries (i.e., BRICS, OECD, or increased national
incomes according to World Bank data from 1990 and 2023).

## # A tibble: 48 × 13
##    measure continents decades varia…¹     n   min   max median   iqr  mean    sd
##    <fct>   <fct>      <chr>   <chr>   <dbl> <dbl> <dbl>  <dbl> <dbl> <dbl> <dbl>
##  1 KG_CAP  South_Ame… 1990s   overal…   240 17.8   75.9   43.8 27.1   44.0 16.9 
##  2 KG_CAP  Oceania    1990s   overal…    80 40.9   92.9   82.4  4.25  80.8 10.1 
##  3 KG_CAP  North_Ame… 1990s   overal…    80 69.6   98.2   82.5 22.1   82.3 11.1 
##  4 KG_CAP  Europe     1990s   overal…   232  0     61.5   32.7 43.9   26.6 22.5 
##  5 KG_CAP  Asia       1990s   overal…   632  2.98  58.7   22.2 18.9   24.6 14.0 
##  6 KG_CAP  Africa     1990s   overal…   148  4.36  33.1   11.2 23.1   14.2 10.6 
##  7 KG_CAP  South_Ame… 2000s   overal…   240 25.3   83.6   52.8 25.3   51.7 15.8 
##  8 KG_CAP  Oceania    2000s   overal…    80 68.4   92.4   87.1  4.30  86.0  5.44
##  9 KG_CAP  North_Ame… 2000s   overal…    80 71.5  101.    86.4 24.5   86.9 12.6 
## 10 KG_CAP  Europe     2000s   overal…   240 23.6   69.3   54.4 17.4   50.8 12.4 
## # … with 38 more rows, 2 more variables: se <dbl>, ci <dbl>, and abbreviated
## #   variable name ¹​variable
## # ℹ Use `print(n = ...)` to see more rows, and `colnames()` to see all variable names

## # A tibble: 24 × 13
##    location measure decades variable      n   min   max median   iqr  mean    sd
##    <fct>    <fct>   <chr>   <chr>     <dbl> <dbl> <dbl>  <dbl> <dbl> <dbl> <dbl>
##  1 BRICS    KG_CAP  1990s   overall_…    40  12.2  24.2   20.7  5.96  19.7 3.91 
##  2 OECD     KG_CAP  1990s   overall_…    40  30.3  37.0   34.5  1.56  34.0 1.80 
##  3 WLD      KG_CAP  1990s   overall_…    40  17.9  23.8   21.8  2.83  21.4 1.79 
##  4 BRICS    KG_CAP  2000s   overall_…    40  24.9  29.7   26.8  2.27  27.0 1.59 
##  5 OECD     KG_CAP  2000s   overall_…    40  63.4  67.3   65.9  0.94  65.6 1.06 
##  6 WLD      KG_CAP  2000s   overall_…    40  29.3  32.7   30.9  1.77  31.0 1.15 
##  7 BRICS    KG_CAP  2010s   overall_…    40  30.9  32.8   32.2  0.47  32.1 0.612
##  8 OECD     KG_CAP  2010s   overall_…    40  64.8  70.2   66.7  3.96  67.2 2.15 
##  9 WLD      KG_CAP  2010s   overall_…    40  33.4  34.7   34.4  0.76  34.3 0.468
## 10 BRICS    KG_CAP  2020    overall_…    36  32.6  33.7   33.1  0.52  33.1 0.337
## # … with 14 more rows, and 2 more variables: se <dbl>, ci <dbl>
## # ℹ Use `print(n = ...)` to see more rows, and `colnames()` to see all variable names
…
